807430 656205
45750 874671
650563 120152
990866 600558
157180 51646
18977 887805
434992 619502
464760 848181
683899 548094
946791 482180
543138 678460
458338 552471
88352 363683
501290 496402
844957 905821
226726 738210
576931 774097
172465 311582
853265 894989
886424 580514
59676 4041
121627 904002
27031 663771
187053 655510
885404 619020
400061 384114
377132 79442
189708 849105
722261 689207
436580 188050
518346 508277
871620 475562
775064 947479
28000 189617
525277 260016
854671 234794
186634 401130
482385 537873
215204 551913
241260 789566
447452 574946
719645 356709
639219 504619
490137 82096
543049 960395
962658 990401
732269 890274
964043 676665
675968 868160
596888 535495
367565 152719
196357 994425
594017 55327
466698 516435
182235 197449
708774 269178
630272 373692
163414 737949
218606 378782
512114 219807
454147 148956
970258 347294
750242 441923
226407 724304
450148 347464
561556 469620
221131 139929
261900 54983
582970 263150
907840 813048
20715 317296
430855 583104
995898 328477
534676 576455
966049 536930
141714 113801
553837 309323
111226 560979
770604 18677
296871 359461
90532 883157
363331 269140
603951 292560
978109 693074
327011 290881
166602 198851
205744 535931
199853 942453
418362 699465
691549 753694
583909 640732
411644 337066
677739 203018
876095 68977
883675 944964
192978 72625
574504 776307
155779 187586
406364 442250
988618 156812
990971 360965
909010 18916
781447 377377
983515 677428
476564 441349
673074 942261
622338 82101
359791 973020
814914 580282
825000 285351
638986 741318
924790 522666
670368 767082
739284 289815
755512 768070
70814 440759
651608 116383
329016 207600
687663 757602
538265 550455
756586 61538
844061 439
272538 760092
811921 169658
895342 456191
885900 57584
624858 971339
937301 397111
175524 777368
615369 243103
831668 854589
937490 882083
653343 382804
200009 84081
266697 392916
582517 669060
623357 629400
415219 32498
635550 492006
155968 693995
451735 794345
24759 553352
157946 605851
325615 500801
294392 25339
494562 744364
357224 806108
363159 796495
617629 671819
327064 727889
527997 433914
639549 555366
983770 69853
701296 511636
242703 563555
476041 945348
120675 252778
356915 786055
321123 60959
692336 282898
435937 809435
843298 429112
382761 705236
534747 989215
564353 476204
414617 821266
809722 547218
592184 66212
994420 499742
644215 493271
851303 209841
978540 418592
861427 70905
713202 859685
642491 975179
172369 665153
750105 439092
967159 597254
597012 670210
275954 393135
132935 17800
617321 857013
667215 879246
458743 622918
764804 530675
556465 776755
936319 750948
315752 223114
407830 692103
363160 770085
383194 782012
423932 108699
404055 472038
96599 43884
957621 297330
792197 309008
928194 883871
590821 13651
270900 889140
918860 541178
697288 889069
633570 791157
759808 480676
482928 380458
68493 752092
33719 486815
809064 634728
297994 155235
959409 58230
616339 434304
391014 617104
67396 293007
420553 24077
48409 969528
285054 664819
871936 990588
130959 175153
262851 44626
66063 956982
60133 313227
926301 894744
350938 42486
802141 77815
983016 321001
