29045 449236
267920 63708
397743 285293
868198 364852
619125 342306
414376 361336
912223 674163
645468 870558
550522 434390
931347 272057
104657 286219
960600 778209
363676 147677
187307 4091
283369 186306
49822 839159
874864 985302
186407 994511
683102 955612
245219 814148
266354 746617
137147 243282
316348 738210
291858 144359
53844 163001
399978 91973
582986 262986
507855 738164
505967 688027
200001 262983
540131 527462
825852 48350
704649 48274
401333 124542
655832 659714
743166 584946
754550 249126
845590 32837
676723 1774
894228 246052
809071 654922
833620 262528
501995 74172
323109 840681
773259 304286
689464 721106
748496 701243
776055 971489
422222 127968
775298 857505
723507 807480
205891 972017
501551 882762
818924 965758
273796 688587
949228 151111
217218 746486
344619 753692
712764 337086
475173 171623
720556 176049
598270 984643
665938 336375
841688 792327
262042 852474
997215 366705
519432 482246
575485 923639
504853 123538
649492 807425
795181 391345
562107 711588
642710 804573
742665 257993
647156 299866
980565 426324
121056 851072
888442 745100
252841 108715
283894 840766
338386 409945
260682 210923
110785 641739
987040 473196
931243 745942
758104 250206
387908 963742
464766 896212
174095 312767
552249 959460
441510 362115
805302 282317
316479 583510
134825 608058
400428 227875
375324 181338
678290 753068
521732 10860
328334 629015
884603 372283
880102 144411
39765 904110
635743 820979
935049 299837
702624 73143
746430 207769
673809 878881
462298 418634
650830 550054
633969 420573
455635 307516
645432 634778
700307 933041
280193 336741
837479 189836
613270 522127
601780 755783
943502 592233
286730 419545
432170 283782
708397 383005
170314 984833
401654 790206
721660 759973
458935 917304
865674 843669
519820 318181
130542 638699
659435 102773
430957 597505
689867 17894
360001 51224
651887 374898
643853 497139
571516 751548
894015 551789
158454 187717
769033 638171
299799 716924
154374 822729
219645 960379
805459 942608
805373 557848
694849 521836
707299 115732
606681 746220
725490 293911
734210 779407
302873 875909
933636 237602
612261 4059
318324 836628
798080 676637
133889 48320
116176 213524
810304 405276
655423 921954
935217 753859
296512 512093
90739 699705
552188 447572
485762 256948
402545 502558
809213 606049
16682 241150
173480 456309
264412 747476
192113 596537
662558 143299
967503 791130
227341 979725
881029 944781
623947 10120
153736 38238
628121 415940
467854 463951
785462 89084
776091 327919
166929 971429
9194 466960
543741 93964
112560 969796
152554 126441
159588 931876
961983 107104
12279 442852
267249 69197
207671 210076
794316 171720
703914 8400
973570 229624
874053 579189
940133 219293
763162 228874
922925 911027
398426 112013
213998 466714
957214 871257
52730 758080
723017 909341
922930 9374
297347 78054
464665 909312
110099 621258
594348 277743
320098 925241
578780 732643
225493 592284
642591 644118
885729 336401
374235 468811
304458 465833
550102 755959
926570 781978
344735 351107
989191 491785
971388 610759
317478 684187
507653 767761
827851 715017
684934 958082
902091 140059
172760 948742
836378 428801
585402 114538
124849 255278
74586 15964
342096 202641
230698 324100
480128 963909
833597 441596
760543 52239
366668 896504
626192 624222
510293 876299
12058 457073
68744 441622
777575 402348
378150 504020
963606 494121
72386 984289
927297 872303
983389 71865
883066 124099
432957 580171
964914 641056
404538 771582
222401 278812
98268 838527
745838 783115
156904 292763
49275 492847
996563 603731
468812 465391
368267 969116
710604 153823
870196 245350
319878 407366
793248 142168
120874 337976
417930 568139
983879 896824
84980 341725
463205 621794
817238 893155
764147 279926
698886 268252
101174 546064
488448 8731
618312 567222
720430 221262
543662 122693
799570 154662
931213 98179
646657 288955
