29045 449236 449
267920 63708 443
397743 285293 441
868198 364852 525
619125 342306 470
414376 361336 449
912223 674163 525
645468 870558 525
550522 434390 470
931347 272057 525
104657 286219 443
960600 778209 525
363676 147677 443
187307 4091 383
283369 186306 443
49822 839159 525
874864 985302 507
186407 994511 525
683102 955612 525
245219 814148 509
266354 746617 509
137147 243282 443
316348 738210 509
291858 144359 443
53844 163001 383
399978 91973 443
582986 262986 470
507855 738164 509
505967 688027 509
200001 262983 443
540131 527462 377
825852 48350 509
704649 48274 509
401333 124542 443
655832 659714 429
743166 584946 509
754550 249126 509
845590 32837 525
676723 1774 509
894228 246052 525
809071 654922 504
833620 262528 509
501995 74172 449
323109 840681 525
773259 304286 509
689464 721106 504
748496 701243 504
776055 971489 525
422222 127968 449
775298 857505 525
723507 807480 468
205891 972017 525
501551 882762 525
818924 965758 525
273796 688587 509
949228 151111 525
217218 746486 509
344619 753692 509
712764 337086 509
475173 171623 449
720556 176049 509
598270 984643 525
665938 336375 509
841688 792327 525
262042 852474 525
997215 366705 525
519432 482246 470
575485 923639 525
504853 123538 449
649492 807425 504
795181 391345 509
562107 711588 509
642710 804573 504
742665 257993 509
647156 299866 509
980565 426324 525
121056 851072 525
888442 745100 525
252841 108715 443
283894 840766 525
338386 409945 441
260682 210923 443
110785 641739 509
987040 473196 525
931243 745942 525
758104 250206 509
387908 963742 525
464766 896212 525
174095 312767 443
552249 959460 525
441510 362115 449
805302 282317 509
316479 583510 470
134825 608058 470
400428 227875 443
375324 181338 443
678290 753068 504
521732 10860 470
328334 629015 509
884603 372283 525
880102 144411 525
39765 904110 525
635743 820979 504
935049 299837 525
702624 73143 509
746430 207769 509
673809 878881 525
462298 418634 444
650830 550054 509
633969 420573 509
455635 307516 449
645432 634778 416
700307 933041 525
280193 336741 389
837479 189836 509
613270 522127 452
601780 755783 509
943502 592233 525
286730 419545 449
432170 283782 449
708397 383005 509
170314 984833 525
401654 790206 509
721660 759973 424
458935 917304 525
865674 843669 419
519820 318181 470
130542 638699 509
659435 102773 509
430957 597505 470
689867 17894 509
360001 51224 443
651887 374898 509
643853 497139 509
571516 751548 509
894015 551789 525
158454 187717 370
769033 638171 504
299799 716924 509
154374 822729 509
219645 960379 525
805459 942608 525
805373 557848 509
694849 521836 509
707299 115732 509
606681 746220 509
725490 293911 509
734210 779407 468
302873 875909 525
933636 237602 525
612261 4059 470
318324 836628 509
798080 676637 504
133889 48320 354
116176 213524 383
810304 405276 509
655423 921954 525
935217 753859 525
296512 512093 470
90739 699705 509
552188 447572 470
485762 256948 449
402545 502558 449
809213 606049 509
16682 241150 443
173480 456309 449
264412 747476 509
192113 596537 470
662558 143299 509
967503 791130 525
227341 979725 525
881029 944781 507
623947 10120 470
153736 38238 375
628121 415940 509
467854 463951 413
785462 89084 509
776091 327919 509
166929 971429 525
9194 466960 449
543741 93964 470
112560 969796 525
152554 126441 375
159588 931876 525
961983 107104 525
12279 442852 449
267249 69197 443
207671 210076 311
794316 171720 509
703914 8400 509
973570 229624 525
874053 579189 525
940133 219293 525
763162 228874 509
922925 911027 445
398426 112013 443
213998 466714 449
957214 871257 507
52730 758080 509
723017 909341 525
922930 9374 525
297347 78054 443
464665 909312 525
110099 621258 470
594348 277743 470
320098 925241 525
578780 732643 509
225493 592284 470
642591 644118 354
885729 336401 525
374235 468811 449
304458 465833 449
550102 755959 509
926570 781978 525
344735 351107 441
989191 491785 525
971388 610759 525
317478 684187 509
507653 767761 509
827851 715017 468
684934 958082 525
902091 140059 525
172760 948742 525
836378 428801 509
585402 114538 470
124849 255278 443
74586 15964 340
342096 202641 443
230698 324100 407
480128 963909 525
833597 441596 509
760543 52239 509
366668 896504 525
626192 624222 385
510293 876299 525
12058 457073 449
68744 441622 449
777575 402348 509
378150 504020 449
963606 494121 525
72386 984289 525
927297 872303 476
983389 71865 525
883066 124099 525
432957 580171 470
964914 641056 525
404538 771582 509
222401 278812 443
98268 838527 525
745838 783115 468
156904 292763 443
49275 492847 449
996563 603731 525
468812 465391 413
368267 969116 525
710604 153823 509
870196 245350 525
319878 407366 441
793248 142168 509
120874 337976 443
417930 568139 470
983879 896824 507
84980 341725 443
463205 621794 470
817238 893155 525
764147 279926 509
698886 268252 509
101174 546064 470
488448 8731 449
618312 567222 447
720430 221262 509
543662 122693 470
799570 154662 509
931213 98179 525
646657 288955 509
