720512 738309 424
613718 673647 509
566961 720284 509
328422 834300 509
813132 849615 525
549196 661557 509
200694 218454 386
602656 806340 509
847020 888572 445
273214 793031 509
238700 283945 407
909952 995451 507
773355 942555 525
231980 485154 449
278705 833907 509
198808 747121 509
346840 426852 449
777851 929952 525
642885 748809 504
516911 597160 452
724935 891334 525
946903 967458 414
250949 824954 509
698983 908878 525
641562 934088 525
17928 514760 470
188630 784128 509
846556 866472 419
79929 194317 383
460668 877607 525
13708 626288 470
528213 805979 509
856214 868602 388
845290 889577 445
425555 479572 444
317210 337722 384
953910 970742 458
558386 902370 525
332495 892652 525
479847 578065 470
973939 978440 383
91514 737649 509
300005 835167 509
747205 880798 525
310069 872631 525
530667 660981 509
471322 608079 470
954840 965603 414
939394 977544 507
323706 990180 525
755772 779813 468
737050 791141 468
860785 974006 507
216161 747540 509
347315 893888 525
99482 734927 509
8783 91560 351
554465 851539 525
911714 998257 507
557699 898605 525
76375 654356 509
392950 427263 449
551501 763454 509
799819 822275 450
905647 977156 507
388211 471984 449
371083 854181 525
101710 474906 449
91875 808057 509
21300 649745 509
697252 911493 525
751896 766742 424
90852 289249 443
72312 541494 470
39254 494796 449
977612 982891 427
211273 507861 449
885175 926919 476
550319 922566 525
927502 951870 507
29959 829024 509
499439 718263 509
294046 698011 509
994652 995349 290
179462 191918 365
638168 969481 525
299729 828685 509
702156 933504 525
826488 990101 525
501335 545672 470
108970 211875 383
954865 993181 458
324338 911582 525
908318 934889 476
389209 952354 525
998812 999716 396
670262 848305 525
839547 941337 507
954413 992971 458
438747 711238 509
346306 590598 470
744115 818418 468
786685 910527 525
698910 854046 525
933747 971449 507
344145 586732 470
219801 233408 443
891256 991466 507
191045 907373 525
771903 856849 525
655620 960917 525
82533 236033 443
199322 930465 525
299554 734421 509
607331 707662 509
945826 969318 414
975644 992579 427
313779 428201 449
858193 874745 432
544928 753847 509
446677 456964 387
44155 472818 449
745856 772843 468
161173 623251 470
719692 766717 424
217359 875738 525
540699 674258 509
937800 999977 507
61698 839106 525
546729 893785 525
48751 808490 509
601893 670365 509
819528 877628 525
211477 666051 509
892882 948639 507
240426 786273 509
646632 931655 525
799526 815219 406
738567 928715 525
991288 995040 365
497384 838054 525
367783 680527 509
748311 918552 525
578650 615961 447
683304 704397 442
404244 782022 509
938522 956148 507
828236 925815 525
652756 716145 504
521345 592625 452
260501 593756 470
686840 736834 504
97884 534504 470
563549 844174 525
659633 955816 525
537378 638116 509
394822 538105 470
120397 367008 443
605989 776891 509
988962 990015 352
215195 482387 449
790735 937492 525
32521 760517 509
887537 909602 445
47006 643055 509
26405 909939 525
827141 903319 525
76895 272747 443
282495 396230 441
1662 697548 509
354025 781943 509
977080 989629 427
29066 883128 525
478763 489360 413
314831 962956 525
894732 914137 476
771747 786393 437
887081 947814 507
846839 948130 507
717423 732478 411
608092 918915 525
512400 662135 509
708724 720942 411
714846 999725 525
328541 443756 449
66961 80548 351
433364 585595 470
332886 886849 525
93111 373007 443
640285 667624 442
275088 431148 449
915092 995233 507
699319 720432 504
817748 898507 525
464825 859213 525
380681 439346 449
686908 760700 504
637529 983325 525
266577 879218 525
218735 362192 443
408599 571767 470
849906 864789 419
561394 864736 525
907771 946823 507
724210 900091 525
365429 565113 470
825383 869962 525
193752 629888 509
138666 799102 509
872152 924358 476
377084 644536 509
687470 853158 525
853827 927978 476
242124 807540 509
956934 978529 458
799950 943142 525
397072 646267 509
672887 925261 525
396362 433810 449
557780 765794 509
259746 355744 441
482858 488329 382
842479 903564 445
918073 943337 507
463674 923877 525
783065 899701 525
767137 909309 525
457247 659302 509
89621 445630 449
900641 989307 507
963983 988562 458
786419 964077 525
846878 863821 419
867205 938378 476
451415 662885 509
744173 798688 468
15983 385159 443
98979 958407 525
710707 866632 525
825407 979450 525
828709 937866 525
597753 842629 525
279334 770295 509
818687 828130 450
913024 939432 476
846840 999859 507
737487 829416 468
769237 791320 437
866415 909251 445
610063 979058 525
119040 795540 509
931040 974874 507
125747 664799 509
124081 320806 443
959073 965217 414
356753 769866 509
800177 975915 525
180870 215659 373
317035 462283 449
869320 975230 507
421549 431011 418
233487 560420 470
216680 720678 509
397117 436653 449
884757 891827 445
647994 794574 504
25866 586672 470
220810 441014 449
354539 478224 449
371913 852029 525
232562 687611 509
679561 990124 525
598349 648793 509
581279 648999 509
456784 936974 525
134427 619691 470
33379 562917 470
570368 636795 509
391535 949649 525
103303 838369 525
678618 736591 504
567481 888806 525
112946 958849 525
43150 56108 340
680676 685369 380
302052 303699 340
719680 829771 468
42043 984222 525
399065 924259 525
85666 969726 525
94118 664768 509
484066 634788 509
368410 752735 509
429565 669400 509
662989 993847 525
483845 717027 509
33817 73848 340
402049 474940 449
198878 221287 386
988130 998296 440
