933414 953518
271208 173224
520200 587776
394408 967128
144434 608366
930580 335024
814428 389911
805807 643967
160835 112745
970515 818053
992658 740003
159758 444520
867627 384969
468933 67355
24501 824200
753158 833268
10372 996710
165729 973843
298036 836795
588502 934872
510243 995635
927351 206810
995355 220702
308534 678102
24423 260224
925624 809179
576585 274185
735181 299125
579416 768915
509869 43346
183295 425870
196005 849752
738784 451444
618912 966221
171045 870470
37282 773848
528445 617259
105771 351167
487393 109889
46744 815032
868723 442957
901260 25721
302831 295064
609502 406364
59832 396962
215753 400504
158180 256206
328198 134766
849135 399781
219077 638097
457471 963999
669565 563689
88765 29183
628183 5316
481049 930555
874172 142213
206198 821491
622603 152679
665080 757606
331917 224770
299435 183809
283809 649575
249653 72698
913785 245568
229188 187188
640641 248426
861085 12601
28731 223950
321446 653925
488805 253262
909100 633837
220636 581746
752664 970377
195745 792697
946964 816012
489809 151201
100159 940226
390931 4290
806418 161597
768832 789314
572054 342169
674713 811038
814483 764815
227831 43282
370202 478974
502388 581016
142679 756507
780306 199418
734272 342684
691095 891394
739493 98660
28277 639057
492765 574280
63047 404291
169972 307656
564031 740901
337498 489699
804813 786156
129479 531988
394171 478277
601753 698076
647593 927919
54296 252250
436554 820622
80032 616948
555167 248030
441296 277903
74564 436635
111280 184615
381191 493316
815446 789731
556251 936638
64090 29003
489853 522823
517852 107288
217322 218663
742398 695980
321759 936932
793086 761926
6937 105202
947007 430224
74087 10991
262717 227089
287548 734822
957689 148077
657938 391698
458783 535914
253344 579614
279941 682450
955165 496102
553927 467907
77729 224871
678969 835959
371745 285009
764976 86943
552413 550006
467993 202235
115330 729863
783177 699693
647 229250
628527 224419
392779 544126
539489 814501
645314 815533
23754 527537
121265 103744
268356 566312
182903 208744
620829 386735
407435 557722
375209 205515
245574 94199
998770 852678
982034 918338
57193 245629
794285 130975
743774 83464
988455 115912
360873 30910
766061 284600
725548 438287
127300 598005
865333 652884
220398 762959
736963 747622
486627 176375
447283 705172
90168 443937
281016 624273
780522 130358
553947 981
291780 280611
215713 223948
895268 184282
250256 458064
126055 567187
296 49173
624039 227770
565026 620364
473459 575547
798174 758844
35501 79335
103750 259060
907246 317277
329435 990949
942126 247355
880995 992851
721168 609210
664818 403135
253706 59002
331053 464825
390742 448360
476385 453336
299927 700086
973757 560223
513520 272352
169916 574450
289370 58942
973097 407386
593961 585828
554446 499501
834364 177988
133437 333671
29369 705192
91279 899670
67551 762778
113292 752792
491182 623577
970980 862519
92065 603915
508359 808934
180935 74557
37614 186039
690915 942066
881558 917033
134479 853335
48253 492484
993003 472103
730038 842587
21666 352720
