632300 732170
681125 845536
286408 679532
178065 257096
482183 55514
102993 438753
475688 533837
50790 758119
970251 21255
260146 865045
219994 634918
571466 128638
621452 575016
310093 854530
834324 53175
296235 184927
107224 482013
689506 639284
435096 805547
845544 288059
874492 989003
130886 473569
527191 428231
537050 291366
873565 795186
415235 901396
845439 547895
974438 483714
365451 225050
511368 887475
388330 403836
343811 161511
83259 540628
571584 337369
213319 201901
177334 212256
568272 431258
500696 53170
832446 211011
58252 299467
933174 894945
976534 441713
809439 440493
106029 718739
338944 961931
964453 779595
822536 725065
538872 246139
100817 74449
993620 252954
102107 235842
431131 222126
28402 995029
685973 532388
190814 713213
771069 180468
388080 959672
90681 562776
695071 949963
30507 231818
443476 418576
770818 308529
993107 829608
53705 150314
142576 848450
104456 763838
505993 31644
840104 561283
284024 695433
349803 736580
792797 74733
458010 918004
538856 359561
194265 274660
516168 169191
684438 797575
549579 96166
208837 998207
393637 262459
583741 360903
819235 901107
34624 958448
692091 956791
532712 726998
502113 497204
863787 454659
988622 441367
143675 860954
194795 513639
113601 566911
545366 772930
773183 797934
166128 89425
452880 744155
397571 871291
183956 367578
939073 982887
857308 24727
102558 42261
120509 764089
787560 54908
591040 350327
9576 439432
427610 749613
466623 278977
133227 454550
785840 335215
232064 39340
360202 225964
395100 716552
420143 380927
210160 384038
302417 218369
333510 923220
628048 782801
856237 881794
863512 402401
914513 82944
181851 982947
842516 542007
549495 818489
809182 4471
958841 592813
276369 518629
224967 917691
297637 426128
108927 191621
790909 17913
323673 127815
954360 420412
94219 35842
541357 599889
191094 983597
656099 447427
828587 348846
748679 55427
75553 705107
818933 266384
444671 120416
82055 8041
249418 138213
390789 96481
441042 14290
644602 20992
553138 654649
386653 633117
38517 558147
936505 187518
641342 107919
117245 328643
443922 593385
554943 298786
492055 714936
12064 231259
69766 965763
871063 267026
994393 715176
520936 418894
716500 370589
556213 690908
280982 375617
614564 739654
877347 428256
732732 153475
799045 953109
110540 302126
296731 439493
228916 411281
204775 135560
352962 510830
73919 71681
694383 510118
252080 35299
806707 63509
901185 873954
155702 952692
941348 899635
680679 203412
107038 940928
256272 596718
854988 555700
515926 773023
473354 950959
182975 313947
796835 413195
161532 133908
799948 962478
329251 77388
921470 200102
234709 136435
469995 380894
688117 41407
375343 201908
506335 254809
532513 784158
927978 388167
884659 452402
187406 827136
451678 950296
785649 651646
920654 894313
855065 635268
192960 407877
752317 427274
730226 643235
129607 522734
56146 866821
144858 826502
606458 716230
