48706 412384
110356 191549
14648 48954
193982 529252
650830 682425
57481 97263
42207 547148
437472 554558
65953 117899
735489 819704
333583 953909
529519 820705
83124 511999
607027 897029
756909 912699
416651 920755
10022 174820
310972 728828
428852 537370
357436 621284
56868 92566
344765 892014
183062 472217
694451 857824
604764 670284
60364 583168
505356 870148
75225 784078
822888 880183
10987 306543
236931 308252
106306 583329
745836 836340
439709 881272
392273 531931
370986 404957
84072 899771
417894 454257
52177 557261
37330 127191
24005 235605
496226 802162
53802 55488
794001 869970
107688 311562
360757 940056
670238 923632
50401 664946
90976 633376
10217 436218
190967 553198
435141 573487
554784 974710
683446 936517
22689 490989
104579 944166
181774 253844
125251 818693
18441 523329
802662 999576
604812 877131
516175 575389
746153 964968
173915 371053
284258 347732
403580 849546
223209 506980
151999 309548
470292 505628
552471 670898
69603 302449
21900 710081
472680 904127
340268 692388
194776 264135
317556 705285
325368 401861
75938 707055
119026 755304
661373 771228
567619 692254
498535 917013
756015 978658
42481 280419
365501 450858
504184 857234
6506 589700
163595 843250
195988 564804
486911 993304
8435 761161
233117 481084
19953 664426
97916 964894
373511 768587
58974 837050
68290 909164
388536 467700
885360 988805
386454 717089
129053 969525
83104 180454
262419 725520
653996 846421
76106 76519
701315 755219
153541 632238
427888 768010
413043 789826
424767 843966
793342 971444
494990 521185
130267 620705
386827 814653
305247 382157
251229 568117
51811 290424
680298 919808
284613 634267
70681 862374
279602 682295
343921 366348
623846 947693
48551 806167
299731 894867
260614 629144
243211 999016
782538 823744
878736 926826
100566 998134
97889 348080
573113 817878
287688 432853
129038 480697
209474 389832
80278 625803
791323 977682
263506 795848
125345 925192
27878 560803
319495 786216
296359 921617
47989 436115
78190 296272
328791 581622
243595 258383
253186 369475
324461 741562
623924 928879
274798 510054
195329 308262
204239 771528
18177 185876
710691 795143
411618 801838
633922 740823
381853 743689
47551 551063
213946 620377
392180 834449
377190 646502
387672 582686
196000 951761
471307 862660
262989 757516
124877 563557
219369 904449
326060 594623
266425 525086
137580 301898
21116 585687
253600 919210
528142 729606
405616 650673
80019 599005
357028 513000
846210 918838
71231 411914
560621 939834
292422 533535
312388 940117
55969 939618
75899 974974
345264 368902
444717 651801
208723 246962
320901 676762
70432 164593
50775 247434
158356 984700
867614 948635
661665 856419
66627 959502
247970 880972
139777 717924
211562 892169
20848 982506
731802 791191
772047 902535
28332 452383
123230 698690
652050 816818
12406 928441
532654 572363
655292 713667
15063 313002
665048 943454
568464 892497
56471 346725
558830 614895
415454 582008
2562 174958
868872 962014
50758 133543
355392 809783
715544 724647
388052 619642
147925 710710
370800 662826
459968 897187
358782 970598
144640 635918
510530 709269
267405 306651
295535 514496
392135 594321
296555 336541
58754 486114
21385 290336
185226 533698
412338 575008
100531 967156
433553 560305
231533 821442
175156 273534
690125 707563
699003 914702
919328 991445
582775 679089
487572 971190
501982 843720
97619 813839
249640 410595
727512 820284
213221 841740
110567 281447
502602 768970
83259 549350
677092 761251
632253 778492
15780 618582
347122 500716
598944 868373
186916 525522
927129 948194
55794 453914
725848 735156
60124 832430
761606 860542
328727 850069
140887 813790
494077 798893
251693 812515
426357 650718
112965 358971
353210 695782
376577 831880
372727 530330
802190 870004
571653 971782
597674 814751
7563 823238
193679 312971
633241 959500
501149 763893
61086 249885
806925 809911
324510 931572
352058 862441
135350 504592
66048 566074
1068 783506
585458 595940
21053 983533
49907 839575
10081 184143
281894 283026
310130 805753
904697 986200
483134 806176
411769 527473
495086 583492
8251 517606
273497 704336
780110 786661
428462 906740
80783 810475
197322 957382
130357 431461
239793 512197
