48706 412384 449
110356 191549 383
14648 48954 324
193982 529252 470
650830 682425 442
57481 97263 351
42207 547148 470
437472 554558 470
65953 117899 354
735489 819704 468
333583 953909 525
529519 820705 509
83124 511999 470
607027 897029 525
756909 912699 525
416651 920755 525
10022 174820 383
310972 728828 509
428852 537370 470
357436 621284 470
56868 92566 351
344765 892014 525
183062 472217 449
694451 857824 525
604764 670284 509
60364 583168 470
505356 870148 525
75225 784078 509
822888 880183 525
10987 306543 443
236931 308252 407
106306 583329 470
745836 836340 468
439709 881272 525
392273 531931 470
370986 404957 436
84072 899771 525
417894 454257 418
52177 557261 470
37330 127191 354
24005 235605 443
496226 802162 509
53802 55488 260
794001 869970 525
107688 311562 443
360757 940056 525
670238 923632 525
50401 664946 509
90976 633376 509
10217 436218 449
190967 553198 470
435141 573487 470
554784 974710 525
683446 936517 525
22689 490989 449
104579 944166 525
181774 253844 443
125251 818693 509
18441 523329 470
802662 999576 525
604812 877131 525
516175 575389 452
746153 964968 525
173915 371053 443
284258 347732 441
403580 849546 525
223209 506980 449
151999 309548 443
470292 505628 426
552471 670898 509
69603 302449 443
21900 710081 509
472680 904127 525
340268 692388 509
194776 264135 443
317556 705285 509
325368 401861 441
75938 707055 509
119026 755304 509
661373 771228 504
567619 692254 509
498535 917013 525
756015 978658 525
42481 280419 443
365501 450858 449
504184 857234 525
6506 589700 470
163595 843250 525
195988 564804 470
486911 993304 525
8435 761161 509
233117 481084 449
19953 664426 509
97916 964894 525
373511 768587 509
58974 837050 509
68290 909164 525
388536 467700 449
885360 988805 507
386454 717089 509
129053 969525 525
83104 180454 383
262419 725520 509
653996 846421 525
76106 76519 307
701315 755219 504
153541 632238 509
427888 768010 509
413043 789826 509
424767 843966 525
793342 971444 525
494990 521185 470
130267 620705 470
386827 814653 509
305247 382157 441
251229 568117 470
51811 290424 443
680298 919808 525
284613 634267 509
70681 862374 525
279602 682295 509
343921 366348 441
623846 947693 525
48551 806167 509
299731 894867 525
260614 629144 509
243211 999016 525
782538 823744 468
878736 926826 476
100566 998134 525
97889 348080 443
573113 817878 509
287688 432853 449
129038 480697 449
209474 389832 443
80278 625803 470
791323 977682 525
263506 795848 509
125345 925192 525
27878 560803 470
319495 786216 509
296359 921617 525
47989 436115 449
78190 296272 443
328791 581622 470
243595 258383 363
253186 369475 441
324461 741562 509
623924 928879 525
274798 510054 449
195329 308262 443
204239 771528 509
18177 185876 383
710691 795143 468
411618 801838 509
633922 740823 504
381853 743689 509
47551 551063 470
213946 620377 470
392180 834449 509
377190 646502 509
387672 582686 470
196000 951761 525
471307 862660 525
262989 757516 509
124877 563557 470
219369 904449 525
326060 594623 470
266425 525086 470
137580 301898 443
21116 585687 470
253600 919210 525
528142 729606 509
405616 650673 509
80019 599005 470
357028 513000 470
846210 918838 476
71231 411914 449
560621 939834 525
292422 533535 470
312388 940117 525
55969 939618 525
75899 974974 525
345264 368902 441
444717 651801 509
208723 246962 443
320901 676762 509
70432 164593 383
50775 247434 443
158356 984700 525
867614 948635 507
661665 856419 525
66627 959502 525
247970 880972 525
139777 717924 509
211562 892169 525
20848 982506 525
731802 791191 468
772047 902535 525
28332 452383 449
123230 698690 509
652050 816818 504
12406 928441 525
532654 572363 452
655292 713667 504
15063 313002 443
665048 943454 525
568464 892497 525
56471 346725 443
558830 614895 434
415454 582008 470
2562 174958 383
868872 962014 507
50758 133543 354
355392 809783 509
715544 724647 411
388052 619642 470
147925 710710 509
370800 662826 509
459968 897187 525
358782 970598 525
144640 635918 509
510530 709269 509
267405 306651 407
295535 514496 470
392135 594321 470
296555 336541 384
58754 486114 449
21385 290336 443
185226 533698 470
412338 575008 470
100531 967156 525
433553 560305 470
231533 821442 509
175156 273534 443
690125 707563 504
699003 914702 525
919328 991445 507
582775 679089 509
487572 971190 525
501982 843720 525
97619 813839 509
249640 410595 449
727512 820284 468
213221 841740 525
110567 281447 443
502602 768970 509
83259 549350 470
677092 761251 504
632253 778492 504
15780 618582 470
347122 500716 449
598944 868373 525
186916 525522 470
927129 948194 507
55794 453914 449
725848 735156 380
60124 832430 509
761606 860542 525
328727 850069 525
140887 813790 509
494077 798893 509
251693 812515 509
426357 650718 509
112965 358971 443
353210 695782 509
376577 831880 509
372727 530330 470
802190 870004 525
571653 971782 525
597674 814751 509
7563 823238 509
193679 312971 443
633241 959500 525
501149 763893 509
61086 249885 443
806925 809911 406
324510 931572 525
352058 862441 525
135350 504592 449
66048 566074 470
1068 783506 509
585458 595940 403
21053 983533 525
49907 839575 525
10081 184143 383
281894 283026 314
310130 805753 509
904697 986200 507
483134 806176 509
411769 527473 470
495086 583492 470
8251 517606 470
273497 704336 509
780110 786661 375
428462 906740 525
80783 810475 509
197322 957382 525
130357 431461 449
239793 512197 470
