1 1 1
893879 893879 96
980617 742240 525
367331 246201 441
818012 682600 504
195623 619257 470
156718 702271 509
290991 152692 443
270048 400974 441
243540 526282 470
428390 120318 449
142543 402217 443
380967 82123 443
740573 247674 509
845214 382556 525
145139 624080 470
259920 648847 509
747642 738255 424
609209 42371 470
747317 718441 424
847331 953090 507
997420 334114 525
811062 596691 509
34175 778129 509
815537 766646 468
247070 804078 509
814504 283558 509
454865 396437 449
581895 958553 525
330063 362009 441
322776 72398 443
150218 89525 375
103828 544337 470
939028 832742 525
607111 982842 525
675996 488891 509
295344 223631 443
806485 40239 509
284837 292852 389
143003 84482 375
691713 4907 509
218222 402156 443
769189 847022 525
855628 700179 525
806432 572353 509
450416 35283 449
286404 610149 470
317892 899848 525
314168 257658 407
953645 595387 525
689749 376667 509
484247 821956 509
65182 373338 443
270694 987813 525
772177 757781 468
374203 801878 509
764917 325876 509
446222 116433 449
10307 973253 525
281269 945813 525
612005 827281 509
505436 457862 444
167129 408775 443
871668 657215 525
983844 942692 458
746583 7229 509
11753 237109 443
19897 472558 449
528958 14717 470
303349 630123 509
474385 611590 470
163107 75240 383
585411 699228 509
356599 245243 441
162196 903485 525
58013 593758 470
319729 120693 443
717563 581438 509
555123 419155 470
427792 385544 449
782440 754791 468
300238 417719 449
219075 197596 386
76649 554155 470
499168 282915 449
841128 788617 525
938939 49615 525
152563 631659 509
350663 29279 443
424766 939931 525
270954 655842 509
888082 42226 525
107909 3639 354
393828 816857 509
666599 423619 509
443393 572939 470
644594 687890 442
494865 515611 470
336715 984641 525
420507 511165 444
603581 825193 509
125009 388006 443
288126 310989 389
9543 229929 386
346685 890185 525
697366 919712 525
598170 139060 470
966395 179468 525
647852 906360 525
558882 568713 421
523246 373184 470
78944 443226 449
110307 447774 449
524686 37992 470
929906 669175 525
546719 781278 509
433103 656864 509
479662 316104 449
553462 249727 470
649186 991012 525
324392 73612 443
96 400880 443
783456 792 509
837245 970568 525
583177 615161 447
120989 59732 354
2030 4254 238
117155 815906 509
685313 141451 509
907412 548830 525
307493 379151 441
15587 287016 443
802686 31497 509
360024 710004 509
307524 873982 525
141032 890014 525
792559 729855 468
416638 590508 470
607699 978533 525
873264 740613 525
852021 425741 525
28650 265156 443
67624 163029 383
659493 129728 509
952776 186595 525
899481 659684 525
186986 824070 509
135320 393706 443
179713 977618 525
401712 615123 470
855117 646861 525
509674 499573 426
871120 677724 525
396446 600991 470
762591 249153 509
471245 467274 413
363915 942810 525
646079 59452 509
586305 38502 470
251238 103712 443
548955 205116 470
424645 925764 525
889769 324881 525
655858 219643 509
707218 640277 504
976996 724684 525
679099 377755 509
132936 880049 525
801525 79844 509
467438 720589 509
21863 781920 509
581427 609115 434
620205 21878 470
589205 492955 470
828118 58949 509
662837 370645 509
161330 127622 383
531270 572444 452
980010 676818 525
285525 524683 470
416360 715040 509
844655 30539 525
537407 553175 452
981862 429138 525
893716 574886 525
577386 32683 470
405259 97883 443
956300 763426 525
239520 70143 443
999654 497640 525
882570 146381 525
895853 844301 445
216994 802214 509
790386 507010 509
15029 75351 340
38449 226201 386
513115 420118 470
10324 118937 354
234404 595129 470
590713 980310 525
580954 942153 525
521042 921344 525
816531 328320 509
198307 275605 443
743356 696288 504
781226 328181 509
240709 676335 509
760691 226263 509
238868 829583 509
691293 66787 509
601331 210337 470
124865 752971 509
544543 541809 359
589252 577579 434
677861 598638 509
252587 894562 525
187734 445441 449
710663 340628 509
235250 537300 470
78618 293049 443
394386 8730 443
327740 232546 407
407692 484846 449
290607 242112 407
189043 48922 383
874816 873110 388
186472 366570 443
711726 776584 468
595440 693173 509
596790 263275 470
466346 191501 449
509025 566592 470
623607 157575 470
737578 825660 468
513430 555762 452
825242 309850 509
548742 281098 470
732761 949765 525
975854 571538 525
778328 832586 468
596563 950496 525
942414 938730 507
516972 780664 509
843399 357427 525
113965 593723 470
814771 570299 509
368780 329893 441
220924 817216 509
282471 296805 389
49434 592599 470
399652 438041 449
339020 443070 449
586430 671276 509
335257 991488 525
462205 474158 413
361684 737192 509
648947 555254 509
129687 438069 449
996770 944168 458
565337 978439 525
78863 937404 525
492011 354744 449
428104 613836 470
705932 231883 509
891949 957788 507
751757 469394 509
307493 489595 449
53468 364260 443
28014 456351 449
547868 819178 509
886556 196497 525
480515 917687 525
489519 29145 449
617753 321215 470
72119 676597 509
173221 769227 509
469899 678952 509
287466 533518 470
117137 122422 336
907135 914197 476
571557 288622 470
784231 280197 509
926431 291769 525
163053 429224 449
289615 499641 449
498571 643553 509
241262 802411 509
272363 438636 449
398637 194778 443
827654 447629 509
546333 188233 470
14618 511434 449
670011 544744 509
446774 136338 449
220054 919326 525
393323 757798 509
22234 882422 525
103359 35005 351
306980 759073 509
788872 745413 468
